{
    "post1":{
        "aharon horovitz":"hi to all",
        "comments":{
            "comment1":{"smuel hrovitz":"hi to you"},
            "comment2":{"micael doron":"I want to say somthing smart but I..."}
        }
     },
     "post2":{
        "aharon horovitz":"hi to all",
        "comments":{
            "comment1":{"smuel hrovitz":"hi to you"},
            "comment2":{"micael doron":"I want to say somthing smart but I..."}
        }
     }
}
